{
  "name": "Account",
  "plural": "accounts",
  "base": "User",
  "idInjection": true,
  "options": {
    "validateUpsert": true
  },
  "properties": {
    "emailVerified": false,
    "realm": false,
    "username": false,
    "credentials": false,
    "challenges": false,
    "status": false,
    "verificationToken": false,
    "publicKey": {
      "type": "string"
    }
  },
  "validations": [],
  "relations": {
    "ownedPasswords": {
      "type": "hasMany",
      "model": "Password",
      "foreignKey": "ownerId"
    },
    "cipherKeys": {
      "type": "hasMany",
      "model": "CipherKey",
      "foreignKey": "accountId"
    },
    "passwords": {
      "type": "hasMany",
      "model": "Password",
      "foreignKey": "accountId",
      "through": "CipherKey"
    }
  },
  "acls": [
    {
      "accessType": "*",
      "principalType": "ROLE",
      "principalId": "$everyone",
      "permission": "DENY"
    },
    {
      "accessType": "READ",
      "principalType": "ROLE",
      "principalId": "$authenticated",
      "permission": "ALLOW",
      "property": "search"
    },
    {
      "accessType": "*",
      "principalType": "ROLE",
      "principalId": "$owner",
      "permission": "ALLOW"
    },
    {
      "accessType": "*",
      "principalType": "ROLE",
      "principalId": "account",
      "permission": "ALLOW"
    }
  ],
  "methods": {}
}
