{
  "account": {
    "CREATE": "ACCOUNT_CREATE",
    "CREATE_LIST": "ACCOUNT_CREATE_LIST",
    "UPDATE": "ACCOUNT_UPDATE",
    "UPDATE_LIST": "ACCOUNT_UPDATE_LIST",
    "REMOVE": "ACCOUNT_REMOVE"
  },
  "authentication": {
    "CREATE": "AUTHENTICATION_CREATE",
    "REMOVE": "AUTHENTICATION_REMOVE"
  },
  "cipherKey": {
    "CREATE": "CIPHERKEY_CREATE",
    "CREATE_LIST": "CIPHERKEY_CREATE_LIST",
    "UPDATE": "CIPHERKEY_UPDATE",
    "UPDATE_LIST": "CIPHERKEY_UPDATE_LIST",
    "REMOVE": "CIPHERKEY_REMOVE"
  },
  "language": {
    "SELECT": "LANGUAGE_SELECT"
  },
  "notification": {
    "SET": "NOTIFICATION_SET",
    "UNSET": "NOTIFICATION_UNSET"
  },
  "password": {
    "CREATE": "PASSWORD_CREATE",
    "CREATE_LIST": "PASSWORD_CREATE_LIST",
    "UPDATE": "PASSWORD_UPDATE",
    "UPDATE_LIST": "PASSWORD_UPDATE_LIST",
    "REMOVE": "PASSWORD_REMOVE"
  },
  "privateKey": {
    "UPDATE": "PRIVATEKEY_UPDATE"
  }
}
